<svg xmlns="http://www.w3.org/2000/svg" version="1.1" width="300" height="200">
    <rect width="100" height="80" x="0" y="70" fill="green"/>
    <line x1="5" y1="5" x2="250" y2="95" stroke="red"/>
    <circle cx="90" cy="80" r="50" fill="blue"/>
</svg>
